<svg xmlns="http://www.w3.org/2000/svg" width="15" height="9">
    <path fill="#480a73" fill-rule="evenodd" d="M13.565.675c-.579-.582-1.517-.582-2.096 0l-4.47 4.492L2.528.675C1.949.093 1.011.093.432.675c-.579.581-.579 1.524 0 2.106l5.516 5.543c.289.291.668.436 1.048.436h.006c.379 0 .758-.145 1.048-.436l5.515-5.543c.579-.582.579-1.525 0-2.106z"/>
</svg>
