<svg xmlns="http://www.w3.org/2000/svg" width="42" height="42">
    <path fill-rule="evenodd" d="M35.437 19.359h-6.234c-3.618 0-6.562-2.944-6.562-6.562V6.562C22.641 2.944 25.585 0 29.203 0h6.234C39.056 0 42 2.944 42 6.562v6.235c0 3.618-2.944 6.562-6.563 6.562zm3.282-12.797c0-1.809-1.472-3.281-3.282-3.281h-6.234c-1.809 0-3.281 1.472-3.281 3.281v6.235c0 1.809 1.472 3.281 3.281 3.281h6.234c1.81 0 3.282-1.472 3.282-3.281V6.562zM12.797 42H6.563C2.944 42 0 39.056 0 35.437v-6.234c0-3.618 2.944-6.563 6.563-6.563h6.234c3.618 0 6.562 2.945 6.562 6.563v6.234c0 3.619-2.944 6.563-6.562 6.563zm3.281-12.797c0-1.809-1.472-3.281-3.281-3.281H6.563c-1.81 0-3.282 1.472-3.282 3.281v6.234c0 1.81 1.472 3.282 3.282 3.282h6.234c1.809 0 3.281-1.472 3.281-3.282v-6.234zm-3.281-9.844H6.563C2.944 19.359 0 16.415 0 12.797V6.562C0 2.944 2.944 0 6.563 0h6.234c3.618 0 6.562 2.944 6.562 6.562v6.235c0 3.618-2.944 6.562-6.562 6.562zm3.281-12.797c0-1.809-1.472-3.281-3.281-3.281H6.563c-1.81 0-3.282 1.472-3.282 3.281v6.235c0 1.809 1.472 3.281 3.282 3.281h6.234c1.809 0 3.281-1.472 3.281-3.281V6.562zM29.203 22.64h6.234c2.609 0 4.97 1.545 6.015 3.936.363.83-.015 1.797-.846 2.16-.83.363-1.797-.015-2.16-.846-.523-1.195-1.704-1.968-3.009-1.968h-6.234c-1.809 0-3.281 1.472-3.281 3.281v6.234c0 1.81 1.472 3.282 3.281 3.282h6.234c1.81 0 3.282-1.472 3.282-3.282 0-.906.734-1.64 1.641-1.64.905 0 1.64.734 1.64 1.64C42 39.056 39.056 42 35.437 42h-6.234c-3.618 0-6.562-2.944-6.562-6.563v-6.234c0-3.618 2.944-6.563 6.562-6.563z"/>
</svg>
