<svg xmlns="http://www.w3.org/2000/svg" width="80" height="80">
    <path fill="#16171B" fill-rule="evenodd" d="M16 0h48c8.837 0 16 7.163 16 16v48c0 8.836-7.163 16-16 16H16C7.163 80 0 72.836 0 64V16C0 7.163 7.163 0 16 0z" opacity=".302"/>
</svg>
