<svg xmlns="http://www.w3.org/2000/svg" width="43" height="39">
    <path fill="#e9e7e7" fill-rule="evenodd" d="M40.866 13.982l-12.527-1.784L22.737 1.07c-.514-1.02-1.998-1.02-2.511 0l-5.602 11.128-12.528 1.784c-1.148.164-1.606 1.547-.775 2.341l9.064 8.663-2.14 12.231c-.196 1.121 1.005 1.976 2.032 1.447l11.204-5.775 11.205 5.775c1.027.529 2.227-.326 2.031-1.447l-2.139-12.231 9.064-8.663c.831-.794.372-2.177-.776-2.341z"/>
</svg>
