<svg xmlns="http://www.w3.org/2000/svg" width="28" height="28">
    <path fill="#FFF" fill-rule="evenodd" d="M26 16H16v10c0 1.104-.895 2-2 2s-2-.896-2-2V16H2c-1.105 0-2-.895-2-2s.895-2 2-2h10V2c0-1.105.895-2 2-2s2 .895 2 2v10h10c1.105 0 2 .895 2 2s-.895 2-2 2z"/>
</svg>
