<svg xmlns="http://www.w3.org/2000/svg" width="22" height="13">
    <path fill="#480A73" fill-rule="evenodd" d="M19.566-.015l-8.573 8.31L2.42-.015l-2.425 2.35 8.573 8.31 2.425 2.35 2.425-2.35 8.573-8.31-2.425-2.35z"/>
</svg>
