<svg xmlns="http://www.w3.org/2000/svg" width="27" height="23">
    <path fill="#FFF" fill-rule="evenodd" d="M.97 13.416c-.294.329-.437.748-.402 1.181.035.433.242.827.586 1.109l8.344 6.87c.311.254.695.391 1.098.391.05 0 .101-.003.151-.007.457-.039.868-.248 1.159-.586L26.179 5.69c.286-.336.42-.758.376-1.19-.045-.432-.26-.821-.61-1.097l-2.613-2.062c-.72-.567-1.786-.467-2.379.224L9.969 14.406l-4.414-3.632c-.708-.581-1.777-.504-2.385.176l-2.2 2.466z"/>
</svg>
