<svg xmlns="http://www.w3.org/2000/svg" width="16" height="22">
    <path fill="#ADB2BB" fill-rule="evenodd" d="M14.713 6.333L8.289.299C8.085.107 7.809 0 7.526 0c-.288 0-.564.107-.762.299L.34 6.333c-.42.395-.42 1.038 0 1.438.42.395 1.105.395 1.531 0l4.575-4.303v17.517c0 .558.486 1.015 1.08 1.015.595 0 1.081-.457 1.081-1.015V3.468l4.581 4.303c.21.198.486.299.762.299s.552-.101.763-.299c.42-.395.42-1.037 0-1.438z" opacity=".6"/>
</svg>
