<svg xmlns="http://www.w3.org/2000/svg" width="42" height="42">
    <path fill="#fff" fill-rule="evenodd" d="M40.641 7.324c1.218-2.904 1.232-4.982.044-6.176-1.184-1.189-3.26-1.191-6.171-.005-1.972.802-4.038 2.055-5.025 3.046l-.015.015-3.416 3.523-4.087-.784.552-.555c.634-.636.634-1.668 0-2.304-.634-.636-1.661-.636-2.295 0l-2.111 2.12-2.959-.567.063-.063c.633-.637.633-1.668 0-2.305-.634-.636-1.661-.636-2.295 0l-1.622 1.629-2.045-.392c-1.53-.294-3.119.172-4.252 1.245L.534 9.986c-.652.617-.682 1.649-.068 2.304.32.339.75.511 1.181.511.4 0 .8-.147 1.113-.444l.837-.792 12.162 6.063-7.049 7.128-3.015-.136-.078-.002c-1.936 0-3.811.807-5.145 2.215-.36.38-.517.911-.419 1.426.096.516.435.953.908 1.174l7.849 3.676 3.961 7.961c.237.475.689.804 1.211.883.081.012.161.018.241.018.441 0 .867-.181 1.175-.506l.11-.116c1.264-1.333 1.96-3.08 1.96-4.921v-3.809L24.42 25.6l3.237 6.957c.379.816 1.345 1.168 2.157.787.811-.381 1.162-1.351.783-2.166l-4.22-9.071c-.224-.482-.669-.824-1.191-.915-.522-.092-1.056.079-1.43.456l-9.061 9.149c-.302.306-.472.719-.472 1.15v4.481c0 .085-.003.168-.008.252l-2.755-5.537c-.164-.329-.434-.593-.766-.748L5.34 27.888c.083-.006.165-.01.249-.01l3.694.166c.459.021.902-.154 1.224-.48l9.115-9.218c.066-.063.126-.132.181-.207l.008-.012.003-.004c.117-.163.2-.343.25-.531.058-.218.069-.442.037-.658l-.001-.004-.002-.012c-.036-.234-.124-.462-.263-.665-.105-.155-.238-.293-.396-.406l-.008-.006-.001-.001c-.079-.055-.161-.103-.246-.143L6.114 9.181l1.119-1.059c.378-.358.908-.513 1.418-.415l17.432 3.342c.572.192 1.229.055 1.678-.408l4.03-4.154c.529-.528 1.904-1.431 3.518-2.144 1.635-.722 2.607-.848 3.014-.831.011.406-.13 1.37-.864 2.984-.726 1.597-1.646 2.974-2.178 3.509l-.012.012-3.923 4.02c-.447.366-.684.961-.569 1.57l3.367 17.701c.097.512-.058 1.044-.414 1.424l-4.217 4.492c-.615.654-.585 1.685.067 2.303.314.297.714.444 1.113.444.431 0 .862-.172 1.181-.512l4.218-4.492c1.068-1.138 1.531-2.734 1.239-4.271l-.391-2.055 1.622-1.627c.633-.637.633-1.668 0-2.305-.634-.637-1.662-.637-2.295 0l-.062.062-.565-2.971 2.11-2.119c.634-.637.634-1.669 0-2.305-.633-.637-1.661-.637-2.295 0l-.551.554-.777-4.085 3.455-3.542c.991-.998 2.248-3.044 3.059-4.979z"/>
</svg>
