<svg xmlns="http://www.w3.org/2000/svg" width="42" height="42">
    <path fill="#fff" fill-rule="evenodd" d="M8.203 13.125c2.714 0 4.922-2.208 4.922-4.922 0-2.714-2.208-4.922-4.922-4.922-2.714 0-4.922 2.208-4.922 4.922 0 2.714 2.208 4.922 4.922 4.922zm0-6.563c.905 0 1.641.737 1.641 1.641 0 .905-.736 1.641-1.641 1.641s-1.64-.736-1.64-1.641c0-.904.735-1.641 1.64-1.641zm25.594 6.563c2.714 0 4.922-2.208 4.922-4.922 0-2.714-2.208-4.922-4.922-4.922-2.714 0-4.922 2.208-4.922 4.922 0 2.714 2.208 4.922 4.922 4.922zm0-6.563c.905 0 1.64.737 1.64 1.641 0 .905-.735 1.641-1.64 1.641-.905 0-1.641-.736-1.641-1.641 0-.904.736-1.641 1.641-1.641zM42 19.605v7.219c0 2.139-1.372 3.964-3.281 4.641v8.894c0 .907-.735 1.641-1.641 1.641s-1.641-.734-1.641-1.641V30.106c0-.907.735-1.641 1.641-1.641.905 0 1.641-.736 1.641-1.641v-7.219c0-.904-.736-1.64-1.641-1.64h-2.953c-.906 0-1.641-.735-1.641-1.641s.735-1.64 1.641-1.64h2.953c2.714 0 4.922 2.208 4.922 4.921zm-9.844 10.501v10.253c0 .907-.734 1.641-1.64 1.641-.907 0-1.641-.734-1.641-1.641v-8.894c-.968-.343-1.797-.981-2.38-1.805-.184.094-.376.176-.573.246v10.453c0 .907-.735 1.641-1.641 1.641s-1.64-.734-1.64-1.641V28.547c0-.906.734-1.641 1.64-1.641.905 0 1.641-.736 1.641-1.64v-8.942c0-.904-.736-1.64-1.641-1.64h-6.562c-.905 0-1.641.736-1.641 1.64v8.942c0 .904.736 1.64 1.641 1.64.906 0 1.64.735 1.64 1.641v11.812c0 .907-.734 1.641-1.64 1.641-.906 0-1.641-.734-1.641-1.641V29.906c-.197-.07-.389-.152-.574-.246-.582.824-1.411 1.462-2.379 1.805v8.894c0 .907-.734 1.641-1.641 1.641-.906 0-1.64-.734-1.64-1.641V30.106c0-.907.734-1.641 1.64-1.641.844 0 1.54-.641 1.63-1.46-.204-.541-.317-1.127-.317-1.739v-8.942c0-2.714 2.208-4.922 4.922-4.922h6.562c2.714 0 4.922 2.208 4.922 4.922v8.942c0 .612-.113 1.198-.317 1.739.09.819.786 1.46 1.63 1.46.906 0 1.64.734 1.64 1.641zM9.516 16.324c0 .906-.735 1.641-1.641 1.641H4.922c-.905 0-1.641.736-1.641 1.64v7.219c0 .905.736 1.641 1.641 1.641.906 0 1.641.734 1.641 1.641v10.253c0 .907-.735 1.641-1.641 1.641s-1.641-.734-1.641-1.641v-8.894C1.372 30.788 0 28.963 0 26.824v-7.219c0-2.713 2.208-4.921 4.922-4.921h2.953c.906 0 1.641.734 1.641 1.64zM21 9.844c2.714 0 4.922-2.208 4.922-4.922C25.922 2.208 23.714 0 21 0c-2.714 0-4.922 2.208-4.922 4.922 0 2.714 2.208 4.922 4.922 4.922zm0-6.563c.905 0 1.641.736 1.641 1.641 0 .904-.736 1.64-1.641 1.64s-1.641-.736-1.641-1.64c0-.905.736-1.641 1.641-1.641z"/>
</svg>
