<svg xmlns="http://www.w3.org/2000/svg" width="42" height="42">
    <path fill-rule="evenodd" d="M40.641 40.165C39.701 41.331 38.307 42 36.818 42h-7.341c-.898 0-1.626-.735-1.626-1.641s.728-1.64 1.626-1.64h7.341c.694 0 1.112-.391 1.3-.624.324-.402.45-.926.344-1.437-.183-.887.381-1.756 1.261-1.941.878-.184 1.74.385 1.923 1.272.305 1.482-.061 3.004-1.005 4.176zm-4.823-9.85c-3.026-4.554-7.884-7.443-13.225-7.939L25.7 36.643c.119.547-.046 1.117-.438 1.512l-3.251 3.283c-.305.307-.719.48-1.15.48-.431 0-.845-.173-1.15-.48l-3.251-3.283c-.392-.395-.557-.965-.439-1.512l3.104-14.249c-7.658.794-14.111 6.547-15.703 14.264-.106.511.02 1.034.344 1.437.188.233.607.624 1.301.624h7.097c.897 0 1.625.734 1.625 1.64 0 .906-.728 1.641-1.625 1.641H5.067c-1.49 0-2.884-.669-3.823-1.835-.945-1.172-1.311-2.694-1.005-4.176.976-4.73 3.56-9.034 7.278-12.12 2.027-1.682 4.344-2.958 6.812-3.778-2.694-2.037-4.441-5.284-4.441-8.935C9.888 5.005 14.847 0 20.942 0c6.096 0 11.055 5.005 11.055 11.156 0 3.649-1.745 6.894-4.437 8.931 4.417 1.467 8.291 4.386 10.958 8.401.501.753.301 1.772-.445 2.276-.745.505-1.755.304-2.255-.449zm-14.957 7.642l1.472-1.486-1.472-6.762-1.473 6.762 1.473 1.486zm7.884-26.801c0-4.342-3.5-7.875-7.803-7.875s-7.803 3.533-7.803 7.875c0 4.214 3.296 7.665 7.423 7.866.127-.003.253-.004.38-.004.129 0 .259.001.388.004 4.123-.205 7.415-3.654 7.415-7.866z"/>
</svg>
