<svg 
 xmlns="http://www.w3.org/2000/svg"
 xmlns:xlink="http://www.w3.org/1999/xlink"
 width="68px" height="29px">
<path fill-rule="evenodd"  fill="rgb(0, 0, 0)"
 d="M1.595,25.588 L62.546,25.588 L40.206,3.548 C39.583,2.933 39.583,1.937 40.206,1.322 C40.829,0.708 41.839,0.708 42.462,1.322 L67.523,26.048 C67.597,26.121 67.664,26.202 67.722,26.288 C67.749,26.328 67.767,26.370 67.789,26.411 C67.817,26.460 67.847,26.507 67.869,26.559 C67.891,26.612 67.904,26.667 67.920,26.722 C67.933,26.766 67.950,26.808 67.959,26.853 C68.000,27.057 68.000,27.266 67.959,27.470 C67.950,27.515 67.933,27.557 67.920,27.601 C67.904,27.655 67.891,27.710 67.869,27.763 C67.847,27.816 67.817,27.863 67.789,27.912 C67.767,27.952 67.749,27.995 67.722,28.034 C67.605,28.207 67.455,28.355 67.280,28.470 C67.242,28.495 67.200,28.513 67.160,28.535 C67.109,28.562 67.060,28.592 67.006,28.614 C66.953,28.636 66.899,28.648 66.844,28.664 C66.799,28.677 66.755,28.694 66.708,28.704 C66.605,28.724 66.501,28.735 66.396,28.735 L1.595,28.735 C0.714,28.735 -0.000,28.030 -0.000,27.161 C-0.000,26.292 0.714,25.588 1.595,25.588 Z"/>
</svg>