<svg xmlns="http://www.w3.org/2000/svg" width="36" height="36">
    <path fill-rule="evenodd" d="M8.789 28.406c-.777 0-1.406-.629-1.406-1.406 0-.777.629-1.406 1.406-1.406.777 0 1.406.629 1.406 1.406 0 .777-.629 1.406-1.406 1.406zm0-12.234c-.777 0-1.406-.629-1.406-1.406 0-.777.629-1.407 1.406-1.407.777 0 1.406.63 1.406 1.407s-.629 1.406-1.406 1.406zm0 6.117c-.777 0-1.406-.629-1.406-1.406 0-.777.629-1.407 1.406-1.407.777 0 1.406.63 1.406 1.407s-.629 1.406-1.406 1.406zm6.117 6.117c-.776 0-1.406-.629-1.406-1.406 0-.777.63-1.406 1.406-1.406.777 0 1.407.629 1.407 1.406 0 .777-.63 1.406-1.407 1.406zm0-12.234c-.776 0-1.406-.629-1.406-1.406 0-.777.63-1.407 1.406-1.407.777 0 1.407.63 1.407 1.407s-.63 1.406-1.407 1.406zm0 6.117c-.776 0-1.406-.629-1.406-1.406 0-.777.63-1.407 1.406-1.407.777 0 1.407.63 1.407 1.407s-.63 1.406-1.407 1.406zm4.711-7.523c0-.777.63-1.407 1.407-1.407.776 0 1.406.63 1.406 1.407s-.63 1.406-1.406 1.406c-.777 0-1.407-.629-1.407-1.406zm6.118 0c0-.777.629-1.407 1.406-1.407.776 0 1.406.63 1.406 1.407s-.63 1.406-1.406 1.406c-.777 0-1.406-.629-1.406-1.406zm2.812 10.828c0 1.551-1.262 2.812-2.812 2.812H22.43c-1.551 0-2.813-1.261-2.813-2.812v-3.305c0-1.55 1.262-2.813 2.813-2.813h3.305c1.55 0 2.812 1.263 2.812 2.813v3.305zm-2.812-3.305H22.43v3.305h3.306l-.001-3.305zm8.859 2.461c-.777 0-1.406-.629-1.406-1.406V8.437c0-1.55-1.262-2.812-2.813-2.812h-1.828v1.406c0 .777-.63 1.406-1.406 1.406-.777 0-1.406-.629-1.406-1.406V5.625h-6.399v1.406c0 .777-.629 1.406-1.406 1.406-.777 0-1.407-.629-1.407-1.406V5.625h-6.328v1.406c0 .777-.629 1.406-1.406 1.406-.777 0-1.406-.629-1.406-1.406V5.625H5.625c-1.551 0-2.812 1.262-2.812 2.812v21.938c0 1.551 1.261 2.813 2.812 2.813h24.75c1.551 0 2.813-1.262 2.813-2.813 0-.777.629-1.406 1.406-1.406.777 0 1.406.629 1.406 1.406C36 33.477 33.477 36 30.375 36H5.625C2.523 36 0 33.477 0 30.375V8.437c0-3.101 2.523-5.624 5.625-5.624h1.758V1.406C7.383.63 8.012 0 8.789 0c.777 0 1.406.63 1.406 1.406v1.407h6.328V1.406C16.523.63 17.153 0 17.93 0s1.406.63 1.406 1.406v1.407h6.399V1.406C25.735.63 26.364 0 27.141 0c.776 0 1.406.63 1.406 1.406v1.407h1.828C33.477 2.813 36 5.336 36 8.437v14.907c0 .777-.629 1.406-1.406 1.406z" opacity=".4"/>
</svg>
