<svg xmlns="http://www.w3.org/2000/svg" width="37" height="36">
    <path fill="#501B64" fill-rule="evenodd" d="M9.746 28.406c-.775 0-1.403-.629-1.403-1.406 0-.777.628-1.406 1.403-1.406.774 0 1.402.629 1.402 1.406 0 .777-.628 1.406-1.402 1.406zm0-12.235c-.775 0-1.403-.629-1.403-1.405 0-.777.628-1.407 1.403-1.407.774 0 1.402.63 1.402 1.407 0 .776-.628 1.405-1.402 1.405zm0 6.118c-.775 0-1.403-.629-1.403-1.406 0-.777.628-1.407 1.403-1.407.774 0 1.402.63 1.402 1.407s-.628 1.406-1.402 1.406zm6.1 6.117c-.775 0-1.403-.629-1.403-1.406 0-.777.628-1.406 1.403-1.406.774 0 1.402.629 1.402 1.406 0 .777-.628 1.406-1.402 1.406zm0-12.235c-.775 0-1.403-.629-1.403-1.405 0-.777.628-1.407 1.403-1.407.774 0 1.402.63 1.402 1.407 0 .776-.628 1.405-1.402 1.405zm0 6.118c-.775 0-1.403-.629-1.403-1.406 0-.777.628-1.407 1.403-1.407.774 0 1.402.63 1.402 1.407s-.628 1.406-1.402 1.406zm6.099-6.118c-.774 0-1.402-.629-1.402-1.405 0-.777.628-1.407 1.402-1.407.775 0 1.403.63 1.403 1.407 0 .776-.628 1.405-1.403 1.405zm0 6.118c-.774 0-1.402-.629-1.402-1.406 0-.777.628-1.407 1.402-1.407.775 0 1.403.63 1.403 1.407s-.628 1.406-1.403 1.406zm4.698-7.523c0-.777.628-1.407 1.402-1.407.774 0 1.402.63 1.402 1.407 0 .776-.628 1.405-1.402 1.405-.774 0-1.402-.629-1.402-1.405zm8.834 2.812c-.775 0-1.402-.63-1.402-1.407V8.437c0-1.55-1.258-2.812-2.805-2.812h-1.823v1.407c0 .776-.628 1.405-1.402 1.405-.774 0-1.402-.629-1.402-1.405V5.625h-6.381v1.407c0 .776-.627 1.405-1.402 1.405-.774 0-1.402-.629-1.402-1.405V5.625h-6.31v1.407c0 .776-.628 1.405-1.402 1.405-.775 0-1.403-.629-1.403-1.405V5.625H6.591c-1.547 0-2.805 1.262-2.805 2.812v21.938c0 1.551 1.258 2.812 2.805 2.812h16.546v-5.765c0-3.102 2.516-5.625 5.609-5.625h6.731c.562 0 1.07.336 1.29.856.22.519.11 1.119-.28 1.525L25.549 35.569c-.269.281-.636.431-1.01.431-.046 0-.092-.002-.139-.007-.046.005-.093.007-.141.007H6.591C3.498 36 .982 33.477.982 30.375V8.437c0-3.101 2.516-5.625 5.609-5.625h1.752V1.406C8.343.629 8.971 0 9.746 0c.774 0 1.402.629 1.402 1.406v1.406h6.31V1.406C17.458.629 18.086 0 18.86 0c.775 0 1.402.629 1.402 1.406v1.406h6.381V1.406c0-.777.628-1.406 1.402-1.406.774 0 1.402.629 1.402 1.406v1.406h1.823c3.093 0 5.609 2.524 5.609 5.625v7.734c0 .777-.628 1.407-1.402 1.407zm-9.535 13.528l6.238-6.497h-3.434c-1.546 0-2.804 1.262-2.804 2.813v3.684z"/>
</svg>
