<svg xmlns="http://www.w3.org/2000/svg" width="40" height="40">
    <path fill-rule="evenodd" d="M19.922 31.328c-.863 0-1.563-.699-1.563-1.562 0-.863.7-1.563 1.563-1.563s1.562.7 1.562 1.563-.699 1.562-1.562 1.562zm1.562-7.031v-2.098c3.022-.731 5.115-3.472 4.996-6.572-.13-3.375-2.9-6.119-6.305-6.247-1.819-.069-3.537.583-4.836 1.834-1.277 1.229-1.98 2.879-1.98 4.646 0 .862.7 1.562 1.563 1.562s1.562-.7 1.562-1.562c0-.91.363-1.761 1.022-2.395.682-.657 1.587-.998 2.552-.963 1.783.068 3.232 1.493 3.299 3.246.063 1.633-1.065 3.076-2.681 3.431-1.364.299-2.317 1.478-2.317 2.866v2.252c0 .863.7 1.562 1.563 1.562s1.562-.699 1.562-1.562zm8.865 12.821c.738-.447.974-1.408.526-2.146-.447-.738-1.407-.974-2.145-.527-2.625 1.59-5.644 2.43-8.73 2.43-9.305 0-16.875-7.57-16.875-16.875S10.695 3.125 20 3.125 36.875 10.695 36.875 20c0 3.328-.989 6.566-2.861 9.366-.48.717-.287 1.688.43 2.168.717.479 1.688.287 2.167-.431C38.828 27.787 40 23.948 40 20c0-5.342-2.08-10.365-5.858-14.142C30.365 2.081 25.342 0 20 0 14.658 0 9.635 2.081 5.858 5.858 2.08 9.635 0 14.658 0 20c0 5.342 2.08 10.365 5.858 14.142C9.635 37.92 14.658 40 20 40c3.657 0 7.236-.997 10.349-2.882z" opacity=".302"/>
</svg>
