<svg xmlns="http://www.w3.org/2000/svg" width="84" height="35">
    <path fill="#FEFEFE" fill-rule="evenodd" d="M1.97 31.064h75.292L49.666 3.536c-.769-.767-.769-2.012 0-2.779.77-.767 2.017-.767 2.787 0l30.958 30.882c.091.092.173.192.246.3.032.05.055.102.083.153.033.061.071.12.098.186.027.066.043.134.062.202.017.055.038.108.049.164.051.255.051.517 0 .771-.011.056-.032.109-.049.164-.019.068-.035.136-.062.203-.028.064-.065.123-.098.185-.028.051-.051.103-.083.152-.145.216-.33.401-.546.545-.048.031-.1.053-.149.081-.063.034-.124.072-.19.099-.065.027-.133.043-.2.062-.056.017-.11.038-.168.05-.127.025-.257.038-.386.038H1.97c-1.088 0-1.97-.88-1.97-1.965s.882-1.965 1.97-1.965z"/>
</svg>
