<svg xmlns="http://www.w3.org/2000/svg" width="22" height="40">
    <path fill="#FFF" fill-rule="evenodd" d="M17.485 19.082L.076 2.433 1.614.962l20.03 19.161-20.03 19.162-1.538-1.474 17.409-16.647 1.093-1.041-1.093-1.041z"/>
</svg>
