<svg xmlns="http://www.w3.org/2000/svg" width="22" height="40">
    <path fill="#FFF" fill-rule="evenodd" d="M4.515 19.082L21.924 2.433 20.387.962.356 20.123l20.031 19.162 1.537-1.474L4.515 21.164l-1.093-1.041 1.093-1.041z"/>
</svg>
