<svg xmlns="http://www.w3.org/2000/svg" width="22" height="13">
    <path fill="#501B64" fill-rule="evenodd" d="M19.584-.015l-8.513 8.27-8.512-8.27L.151 2.324l8.512 8.27 2.408 2.338 2.408-2.338 8.512-8.27-2.407-2.339z"/>
</svg>
