<svg 
 xmlns="http://www.w3.org/2000/svg"
 xmlns:xlink="http://www.w3.org/1999/xlink"
 width="40px" height="40px">
<path fill-rule="evenodd"  opacity="0.302" fill="rgb(0, 0, 0)"
 d="M19.922,31.328 C19.059,31.328 18.359,30.629 18.359,29.766 C18.359,28.903 19.059,28.203 19.922,28.203 C20.785,28.203 21.484,28.903 21.484,29.766 C21.484,30.629 20.785,31.328 19.922,31.328 ZM21.484,24.297 L21.484,22.199 C24.506,21.468 26.599,18.727 26.479,15.627 C26.350,12.252 23.580,9.508 20.175,9.380 C18.356,9.311 16.638,9.963 15.339,11.214 C14.062,12.443 13.359,14.093 13.359,15.860 C13.359,16.723 14.059,17.422 14.922,17.422 C15.785,17.422 16.484,16.723 16.484,15.860 C16.484,14.950 16.847,14.100 17.506,13.465 C18.188,12.808 19.093,12.467 20.058,12.502 C21.840,12.570 23.290,13.995 23.357,15.748 C23.420,17.381 22.292,18.824 20.676,19.179 C19.312,19.478 18.359,20.657 18.359,22.045 L18.359,24.297 C18.359,25.160 19.059,25.859 19.922,25.859 C20.785,25.859 21.484,25.160 21.484,24.297 ZM30.348,37.118 C31.087,36.671 31.323,35.710 30.875,34.972 C30.428,34.234 29.467,33.998 28.730,34.445 C26.105,36.035 23.086,36.875 20.000,36.875 C10.695,36.875 3.125,29.305 3.125,20.000 C3.125,10.695 10.695,3.125 20.000,3.125 C29.305,3.125 36.875,10.695 36.875,20.000 C36.875,23.328 35.886,26.566 34.014,29.366 C33.534,30.083 33.727,31.054 34.444,31.534 C35.161,32.013 36.132,31.820 36.611,31.103 C38.828,27.787 40.000,23.948 40.000,20.000 C40.000,14.658 37.920,9.635 34.142,5.858 C30.365,2.081 25.342,-0.000 20.000,-0.000 C14.658,-0.000 9.635,2.081 5.858,5.858 C2.080,9.635 -0.000,14.658 -0.000,20.000 C-0.000,25.342 2.080,30.365 5.858,34.142 C9.635,37.920 14.658,40.000 20.000,40.000 C23.657,40.000 27.236,39.004 30.348,37.118 Z"/>
</svg>