<svg 
 xmlns="http://www.w3.org/2000/svg"
 xmlns:xlink="http://www.w3.org/1999/xlink"
 width="30px" height="30px">
<path fill-rule="evenodd"  opacity="0.302" fill="rgb(39, 44, 41)"
 d="M26.485,30.000 L3.516,30.000 C1.577,30.000 -0.000,28.423 -0.000,26.484 L-0.000,3.515 C-0.000,1.577 1.577,-0.000 3.516,-0.000 L26.485,-0.000 C28.423,-0.000 30.000,1.577 30.000,3.515 L30.000,8.203 L27.656,8.203 L27.656,3.515 C27.656,2.870 27.131,2.344 26.485,2.344 L3.516,2.344 C2.869,2.344 2.344,2.870 2.344,3.515 L2.344,26.484 C2.344,27.131 2.869,27.656 3.516,27.656 L26.485,27.656 C27.131,27.656 27.656,27.131 27.656,26.484 L27.656,21.797 L30.000,21.797 L30.000,26.484 C30.000,28.423 28.423,30.000 26.485,30.000 ZM17.595,20.625 L15.938,22.282 L8.655,15.000 L15.938,7.718 L17.595,9.375 L13.142,13.828 L30.000,13.828 L30.000,16.172 L13.142,16.172 L17.595,20.625 Z"/>
</svg>