<svg 
 xmlns="http://www.w3.org/2000/svg"
 xmlns:xlink="http://www.w3.org/1999/xlink"
 width="22px" height="40px">
<path fill-rule="evenodd"  fill="rgb(255, 255, 255)"
 d="M4.515,19.082 L21.924,2.433 L20.387,0.962 L0.356,20.123 L20.387,39.285 L21.924,37.812 L4.515,21.164 L3.422,20.123 L4.515,19.082 Z"/>
</svg>