<svg 
 xmlns="http://www.w3.org/2000/svg"
 xmlns:xlink="http://www.w3.org/1999/xlink"
 width="76px" height="76px">
<path fill-rule="evenodd"  fill="rgb(72, 73, 76)"
 d="M54.299,52.681 L21.718,52.681 C19.453,52.681 17.611,50.839 17.611,48.575 L17.611,27.427 C17.611,25.164 19.453,23.322 21.718,23.322 L54.299,23.322 C56.563,23.322 58.405,25.164 58.405,27.427 L58.405,48.575 C58.405,50.839 56.563,52.681 54.299,52.681 ZM21.964,25.871 L36.712,38.732 C37.402,39.331 38.614,39.331 39.305,38.732 L54.057,25.871 L21.964,25.871 ZM55.856,27.684 L44.338,37.725 L51.119,44.084 C51.632,44.565 51.658,45.373 51.176,45.884 C50.925,46.153 50.586,46.287 50.246,46.287 C49.933,46.287 49.620,46.174 49.374,45.942 L42.407,39.409 L40.980,40.652 C40.146,41.378 39.078,41.742 38.008,41.742 C36.939,41.742 35.869,41.379 35.037,40.652 L33.611,39.409 L26.642,45.942 C26.396,46.174 26.083,46.287 25.770,46.287 C25.430,46.287 25.091,46.153 24.840,45.884 C24.358,45.373 24.384,44.565 24.898,44.084 L31.680,37.725 L20.161,27.681 L20.161,48.575 C20.161,49.435 20.859,50.131 21.718,50.131 L54.299,50.131 C55.157,50.131 55.856,49.435 55.856,48.575 L55.856,27.684 ZM72.633,53.683 C72.342,54.326 71.589,54.605 70.945,54.318 C70.303,54.027 70.020,53.271 70.311,52.631 C72.402,48.023 73.462,43.101 73.462,38.001 C73.462,18.460 57.557,2.563 38.008,2.563 C18.459,2.563 2.555,18.460 2.555,38.001 C2.555,57.542 18.459,73.442 38.008,73.442 C48.934,73.442 54.842,69.100 56.727,65.038 C57.902,62.505 57.595,59.893 55.883,57.870 C55.428,57.333 55.495,56.528 56.033,56.075 C56.570,55.621 57.375,55.685 57.830,56.223 C60.209,59.037 60.651,62.641 59.039,66.110 C56.824,70.887 50.135,75.991 38.008,75.991 C17.053,75.991 0.005,58.949 0.005,38.001 C0.005,17.055 17.053,0.013 38.008,0.013 C58.963,0.013 76.011,17.055 76.011,38.001 C76.011,43.468 74.875,48.742 72.633,53.683 Z"/>
</svg>