<svg 
 xmlns="http://www.w3.org/2000/svg"
 xmlns:xlink="http://www.w3.org/1999/xlink"
 width="28px" height="28px">
<path fill-rule="evenodd"  fill="rgb(255, 255, 255)"
 d="M24.000,8.000 C21.791,8.000 20.000,6.209 20.000,4.000 C20.000,1.791 21.791,-0.000 24.000,-0.000 C26.209,-0.000 28.000,1.791 28.000,4.000 C28.000,6.209 26.209,8.000 24.000,8.000 ZM4.000,28.000 C1.791,28.000 0.000,26.209 0.000,24.000 C0.000,21.791 1.791,20.000 4.000,20.000 C6.209,20.000 8.000,21.791 8.000,24.000 C8.000,26.209 6.209,28.000 4.000,28.000 ZM4.000,8.000 C1.791,8.000 0.000,6.209 0.000,4.000 C0.000,1.791 1.791,-0.000 4.000,-0.000 C6.209,-0.000 8.000,1.791 8.000,4.000 C8.000,6.209 6.209,8.000 4.000,8.000 ZM24.000,20.000 C26.209,20.000 28.000,21.791 28.000,24.000 C28.000,26.209 26.209,28.000 24.000,28.000 C21.791,28.000 20.000,26.209 20.000,24.000 C20.000,21.791 21.791,20.000 24.000,20.000 Z"/>
</svg>