<svg 
 xmlns="http://www.w3.org/2000/svg"
 xmlns:xlink="http://www.w3.org/1999/xlink"
 width="30px" height="30px">
<path fill-rule="evenodd"  fill="rgb(0, 0, 0)"
 d="M7.324,23.672 C6.677,23.672 6.152,23.147 6.152,22.500 C6.152,21.853 6.677,21.328 7.324,21.328 C7.971,21.328 8.496,21.853 8.496,22.500 C8.496,23.147 7.971,23.672 7.324,23.672 ZM7.324,13.477 C6.677,13.477 6.152,12.952 6.152,12.305 C6.152,11.658 6.677,11.133 7.324,11.133 C7.971,11.133 8.496,11.658 8.496,12.305 C8.496,12.952 7.971,13.477 7.324,13.477 ZM7.324,18.574 C6.677,18.574 6.152,18.049 6.152,17.402 C6.152,16.755 6.677,16.230 7.324,16.230 C7.971,16.230 8.496,16.755 8.496,17.402 C8.496,18.049 7.971,18.574 7.324,18.574 ZM12.422,23.672 C11.775,23.672 11.250,23.147 11.250,22.500 C11.250,21.853 11.775,21.328 12.422,21.328 C13.069,21.328 13.594,21.853 13.594,22.500 C13.594,23.147 13.069,23.672 12.422,23.672 ZM12.422,13.477 C11.775,13.477 11.250,12.952 11.250,12.305 C11.250,11.658 11.775,11.133 12.422,11.133 C13.069,11.133 13.594,11.658 13.594,12.305 C13.594,12.952 13.069,13.477 12.422,13.477 ZM12.422,18.574 C11.775,18.574 11.250,18.049 11.250,17.402 C11.250,16.755 11.775,16.230 12.422,16.230 C13.069,16.230 13.594,16.755 13.594,17.402 C13.594,18.049 13.069,18.574 12.422,18.574 ZM16.348,12.305 C16.348,11.658 16.872,11.133 17.520,11.133 C18.167,11.133 18.691,11.658 18.691,12.305 C18.691,12.952 18.167,13.477 17.520,13.477 C16.872,13.477 16.348,12.952 16.348,12.305 ZM21.445,12.305 C21.445,11.658 21.970,11.133 22.617,11.133 C23.264,11.133 23.789,11.658 23.789,12.305 C23.789,12.952 23.264,13.477 22.617,13.477 C21.970,13.477 21.445,12.952 21.445,12.305 ZM23.789,21.328 C23.789,22.621 22.738,23.672 21.445,23.672 L18.691,23.672 C17.399,23.672 16.348,22.621 16.348,21.328 L16.348,18.574 C16.348,17.282 17.399,16.230 18.691,16.230 L21.445,16.230 C22.738,16.230 23.789,17.282 23.789,18.574 L23.789,21.328 ZM21.445,18.574 L18.691,18.574 L18.691,21.328 L21.445,21.328 C21.446,21.328 21.447,21.328 21.447,21.328 L21.445,18.574 ZM28.828,20.625 C28.181,20.625 27.656,20.100 27.656,19.453 L27.656,7.031 C27.656,5.739 26.605,4.687 25.312,4.687 L23.789,4.687 L23.789,5.859 C23.789,6.506 23.264,7.031 22.617,7.031 C21.970,7.031 21.445,6.506 21.445,5.859 L21.445,4.687 L16.113,4.687 L16.113,5.859 C16.113,6.506 15.589,7.031 14.941,7.031 C14.294,7.031 13.770,6.506 13.770,5.859 L13.770,4.687 L8.496,4.687 L8.496,5.859 C8.496,6.506 7.971,7.031 7.324,7.031 C6.677,7.031 6.152,6.506 6.152,5.859 L6.152,4.687 L4.687,4.687 C3.395,4.687 2.344,5.739 2.344,7.031 L2.344,25.312 C2.344,26.605 3.395,27.656 4.687,27.656 L25.312,27.656 C26.605,27.656 27.656,26.605 27.656,25.312 C27.656,24.665 28.181,24.141 28.828,24.141 C29.475,24.141 30.000,24.665 30.000,25.312 C30.000,27.897 27.897,30.000 25.312,30.000 L4.687,30.000 C2.103,30.000 -0.000,27.897 -0.000,25.312 L-0.000,7.031 C-0.000,4.447 2.103,2.344 4.687,2.344 L6.152,2.344 L6.152,1.172 C6.152,0.525 6.677,-0.000 7.324,-0.000 C7.971,-0.000 8.496,0.525 8.496,1.172 L8.496,2.344 L13.770,2.344 L13.770,1.172 C13.770,0.525 14.294,-0.000 14.941,-0.000 C15.589,-0.000 16.113,0.525 16.113,1.172 L16.113,2.344 L21.445,2.344 L21.445,1.172 C21.445,0.525 21.970,-0.000 22.617,-0.000 C23.264,-0.000 23.789,0.525 23.789,1.172 L23.789,2.344 L25.312,2.344 C27.897,2.344 30.000,4.447 30.000,7.031 L30.000,19.453 C30.000,20.100 29.475,20.625 28.828,20.625 Z"/>
</svg>