<svg 
 xmlns="http://www.w3.org/2000/svg"
 xmlns:xlink="http://www.w3.org/1999/xlink"
 width="22px" height="13px">
<path fill-rule="evenodd"  fill="rgb(135, 150, 143)"
 d="M19.584,-0.015 L11.071,8.256 L2.559,-0.015 L0.151,2.324 L8.663,10.594 L11.071,12.933 L13.479,10.594 L21.991,2.324 L19.584,-0.015 Z"/>
</svg>