<svg xmlns="http://www.w3.org/2000/svg" width="46" height="46">
    <path fill="#501B64" fill-rule="evenodd" d="M30.05 30.139c-.702.701-1.84.701-2.541 0l-4.448-4.447-4.446 4.447c-.702.701-1.84.701-2.542 0-.701-.702-.702-1.84 0-2.542l4.447-4.447-4.447-4.447c-.701-.701-.702-1.839 0-2.541s1.84-.701 2.542 0l4.446 4.447 4.448-4.447c.701-.702 1.839-.701 2.541 0 .701.702.701 1.839 0 2.541l-4.447 4.447 4.447 4.447c.701.702.701 1.84 0 2.542zm9.214 9.125C34.919 43.607 29.143 46 23 46c-6.143 0-11.919-2.393-16.264-6.736C2.392 34.919 0 29.144 0 23c0-6.143 2.392-11.919 6.736-16.263C11.081 2.393 16.857 0 23 0c4.54 0 8.955 1.348 12.768 3.897.825.551 1.047 1.667.496 2.492-.552.825-1.668 1.047-2.493.495-3.22-2.152-6.945-3.29-10.771-3.29C12.299 3.594 3.594 12.3 3.594 23c0 10.701 8.705 19.406 19.406 19.406 10.701 0 19.406-8.705 19.406-19.406 0-3.549-.966-7.021-2.794-10.039-.514-.849-.243-1.954.606-2.468.848-.514 1.953-.243 2.467.606C44.854 14.679 46 18.794 46 23c0 6.144-2.393 11.919-6.736 16.264z"/>
</svg>
