<svg 
 xmlns="http://www.w3.org/2000/svg"
 xmlns:xlink="http://www.w3.org/1999/xlink"
 width="100px" height="100px">
<path fill-rule="evenodd"  fill="rgb(205, 205, 205)"
 d="M67.383,29.492 C72.768,29.492 77.148,33.873 77.148,39.258 C77.148,41.415 75.400,43.164 73.242,43.164 C71.085,43.164 69.336,41.415 69.336,39.258 C69.336,38.181 68.460,37.305 67.383,37.305 C66.306,37.305 65.430,38.181 65.430,39.258 C65.430,41.415 63.681,43.164 61.523,43.164 C59.366,43.164 57.617,41.415 57.617,39.258 C57.617,33.873 61.998,29.492 67.383,29.492 ZM34.766,39.258 C34.766,38.181 33.889,37.305 32.812,37.305 C31.736,37.305 30.859,38.181 30.859,39.258 C30.859,41.415 29.111,43.164 26.953,43.164 C24.796,43.164 23.047,41.415 23.047,39.258 C23.047,33.873 27.428,29.492 32.812,29.492 C38.197,29.492 42.578,33.873 42.578,39.258 C42.578,41.415 40.829,43.164 38.672,43.164 C36.514,43.164 34.766,41.415 34.766,39.258 ZM68.555,73.828 C68.555,75.986 66.806,77.734 64.648,77.734 C62.491,77.734 60.742,75.986 60.742,73.828 C60.742,67.905 55.923,63.086 50.000,63.086 C44.077,63.086 39.258,67.905 39.258,73.828 C39.258,75.986 37.509,77.734 35.352,77.734 C33.194,77.734 31.445,75.986 31.445,73.828 C31.445,63.597 39.769,55.273 50.000,55.273 C60.231,55.273 68.555,63.597 68.555,73.828 ZM91.528,77.757 C90.330,79.550 87.904,80.033 86.110,78.833 C84.317,77.634 83.835,75.208 85.034,73.415 C89.714,66.415 92.188,58.318 92.188,50.000 C92.188,26.738 73.262,7.813 50.000,7.813 C26.738,7.813 7.813,26.738 7.813,50.000 C7.813,73.262 26.738,92.187 50.000,92.187 C57.716,92.187 65.262,90.087 71.824,86.112 C73.669,84.994 76.071,85.584 77.189,87.429 C78.306,89.274 77.717,91.677 75.871,92.794 C68.089,97.508 59.143,100.000 50.000,100.000 C36.645,100.000 24.088,94.799 14.644,85.356 C5.201,75.912 -0.000,63.355 -0.000,50.000 C-0.000,36.645 5.201,24.089 14.644,14.644 C24.088,5.201 36.645,0.000 50.000,0.000 C63.355,0.000 75.912,5.201 85.355,14.644 C94.799,24.089 100.000,36.645 100.000,50.000 C100.000,59.869 97.071,69.468 91.528,77.757 Z"/>
</svg>