<svg 
 xmlns="http://www.w3.org/2000/svg"
 xmlns:xlink="http://www.w3.org/1999/xlink"
 width="100px" height="100px">
<path fill-rule="evenodd"  fill="rgb(205, 205, 205)"
 d="M91.528,77.757 C90.330,79.550 87.904,80.032 86.110,78.833 C84.317,77.634 83.835,75.208 85.034,73.415 C89.714,66.415 92.188,58.318 92.188,50.000 C92.188,26.738 73.262,7.812 50.000,7.812 C26.738,7.812 7.813,26.738 7.813,50.000 C7.813,73.262 26.738,92.187 50.000,92.187 C57.716,92.187 65.262,90.087 71.824,86.112 C73.668,84.994 76.071,85.584 77.189,87.429 C78.306,89.274 77.717,91.676 75.871,92.795 C68.089,97.508 59.143,100.000 50.000,100.000 C36.644,100.000 24.088,94.799 14.644,85.356 C5.201,75.911 -0.000,63.355 -0.000,50.000 C-0.000,36.644 5.201,24.088 14.644,14.645 C24.088,5.201 36.644,0.000 50.000,0.000 C63.356,0.000 75.912,5.201 85.355,14.645 C94.799,24.088 100.000,36.644 100.000,50.000 C100.000,59.869 97.071,69.467 91.528,77.757 ZM73.438,60.156 C73.438,73.080 62.923,83.594 50.000,83.594 C37.077,83.594 26.563,73.080 26.563,60.156 C26.563,57.999 28.311,56.250 30.469,56.250 L69.531,56.250 C71.689,56.250 73.438,57.999 73.438,60.156 ZM34.869,64.062 C36.608,70.794 42.733,75.781 50.000,75.781 C57.267,75.781 63.392,70.794 65.131,64.062 L34.869,64.062 ZM31.958,29.087 C33.842,28.037 36.221,28.713 37.271,30.598 L42.670,40.286 C43.344,41.496 43.327,42.972 42.626,44.166 C41.924,45.360 40.643,46.093 39.258,46.093 L25.039,46.093 C22.881,46.093 21.133,44.345 21.133,42.188 C21.133,40.030 22.881,38.281 25.039,38.281 L32.609,38.281 L30.447,34.401 C29.397,32.516 30.073,30.137 31.958,29.087 ZM78.125,42.188 C78.125,44.345 76.376,46.093 74.219,46.093 L60.000,46.093 C58.615,46.093 57.333,45.360 56.632,44.166 C55.930,42.972 55.914,41.496 56.588,40.286 L61.986,30.598 C63.036,28.714 65.415,28.036 67.300,29.087 C69.184,30.137 69.861,32.517 68.811,34.401 L66.648,38.281 L74.219,38.281 C76.376,38.281 78.125,40.030 78.125,42.188 Z"/>
</svg>